<?xml version="1.0" encoding="utf-8"?>
<!-- Generator: Adobe Illustrator 21.0.0, SVG Export Plug-In . SVG Version: 6.00 Build 0)  -->
<svg version="1.1" id="Capa_1" xmlns="http://www.w3.org/2000/svg" xmlns:xlink="http://www.w3.org/1999/xlink" x="0px" y="0px"
	 viewBox="0 0 61 51" style="enable-background:new 0 0 61 51;" xml:space="preserve">
<style type="text/css">
	.st0{fill:#F4C53D;}
	.st1{fill:#FFFFFF;}
	.st2{font-family:'Arial-BoldMT';}
	.st3{font-size:27.2008px;}
</style>
<title>CERRAR</title>
<g>
	
		<image style="overflow:visible;opacity:0.35;enable-background:new    ;" width="62" height="52" xlink:href="CBF3519B6CB8C9C1.png"  transform="matrix(0.9839 0 0 0.9808 0 0)">
	</image>
	<path class="st0" d="M25.6,5.9C39.1,2.7,56,2.2,53.1,20.8c-1.7,10.7-8.3,20.8-22,23.1S5.2,39.5,3.7,29S11.5,9.2,25.6,5.9z"/>
	<text transform="matrix(0.9305 -0.1378 -3.446228e-02 0.9994 22.5099 34.1002)" class="st1 st2 st3">x</text>
</g>
</svg>
